…
# fix current_processing_status__status_change_datetime date
ddt_dates = ddt_dates %>% 
  mutate(current_processing_status__status_change_datetime = ifelse(current_processing_status__status_change_datetime==ymd("0001-01-01"), NA, current_processing_status__status_change_datetime))

ddt_dates %>% select(docket_id, contains("by_month"))
```

    ## # A tibble: 370,313 x 5
    ##    docket_id complaint_by_mon… filing_by_month arrest_by_month disposition_by_m…
    ##        <dbl>             <dbl>           <dbl>           <dbl>             <dbl>
    ##  1    354343                NA               0               0                NA
    ##  2    347123                NA               0               0                NA
    ##  3    355476                NA               0               0                NA
    ##  4    366646                NA               0               0                NA
    ##  5    346083                NA               0               0                NA
    ##  6    350351                NA               0               0                NA
    ##  7    352784                NA               0               0                NA
    ##  8    340746                NA               0               0                NA
    ##  9    365568                NA               0               0                NA
    ## 10    363272                NA               0              -3                NA
    ## # … with 370,303 more rows
…
